module ms-push

go 1.16

require (
	github.com/caarlos0/env/v6 v6.6.2
	github.com/go-kit/kit v0.11.0
	github.com/google/uuid v1.3.0
	github.com/gorilla/handlers v1.5.1
	github.com/gorilla/mux v1.8.0
	github.com/gorilla/schema v1.2.0
	github.com/jinzhu/gorm v1.9.16
	github.com/lightstep/lightstep-tracer-go v0.25.0
	github.com/oklog/oklog v0.3.2
	github.com/oklog/run v1.1.0 // indirect
	github.com/opentracing/basictracer-go v1.1.0 // indirect
	github.com/opentracing/opentracing-go v1.2.0
	github.com/openzipkin-contrib/zipkin-go-opentracing v0.4.5
	github.com/openzipkin/zipkin-go v0.2.5
	github.com/praslar/lib v0.2.2
	github.com/prometheus/client_golang v1.11.0
	github.com/sirupsen/logrus v1.8.1
	gopkg.in/yaml.v3 v3.0.0-20210107192922-496545a6307b
	sourcegraph.com/sourcegraph/appdash v0.0.0-20190731080439-ebfcffb1b5c0
)
